{
  "formatVersion": 1,
  "database": {
    "version": 2,
    "identityHash": "d78951d67e72c392b1befc2b308fda06",
    "entities": [
      {
        "tableName": "forms",
        "createSql": "CREATE TABLE IF NOT EXISTS `${TABLE_NAME}` (`formId` INTEGER PRIMARY KEY AUTOINCREMENT NOT NULL, `formStatus` INTEGER NOT NULL, `nomorForm` TEXT, `timestamp` INTEGER, `isNeedResponse` INTEGER NOT NULL, `remoteFormId` INTEGER NOT NULL, `remoteFormStatus` TEXT)",
        "fields": [
          {
            "fieldPath": "formId",
            "columnName": "formId",
            "affinity": "INTEGER",
            "notNull": true
          },
          {
            "fieldPath": "formStatus",
            "columnName": "formStatus",
            "affinity": "INTEGER",
            "notNull": true
          },
          {
            "fieldPath": "nomorForm",
            "columnName": "nomorForm",
            "affinity": "TEXT",
            "notNull": false
          },
          {
            "fieldPath": "timestamp",
            "columnName": "timestamp",
            "affinity": "INTEGER",
            "notNull": false
          },
          {
            "fieldPath": "isNeedResponse",
            "columnName": "isNeedResponse",
            "affinity": "INTEGER",
            "notNull": true
          },
          {
            "fieldPath": "remoteFormId",
            "columnName": "remoteFormId",
            "affinity": "INTEGER",
            "notNull": true
          },
          {
            "fieldPath": "remoteFormStatus",
            "columnName": "remoteFormStatus",
            "affinity": "TEXT",
            "notNull": false
          }
        ],
        "primaryKey": {
          "columnNames": [
            "formId"
          ],
          "autoGenerate": true
        },
        "indices": [],
        "foreignKeys": []
      },
      {
        "tableName": "form_pelaporan",
        "createSql": "CREATE TABLE IF NOT EXISTS `${TABLE_NAME}` (`id` INTEGER PRIMARY KEY AUTOINCREMENT NOT NULL, `relatedFormId` INTEGER NOT NULL, `namaProyek` TEXT, `noTemuan` TEXT, `formDate` INTEGER, `lokasiPenyimpangan` TEXT, `bentukPenyimpangan` TEXT, `kategoriForm` TEXT, `lingkupTemuan` TEXT, `detailLingkupTemuan` TEXT, `attachmentPaths` TEXT, `username` TEXT, `fullname` TEXT, `jabatan` TEXT, `roleId` TEXT, `token` TEXT, `kodedivisi` TEXT, `divisi` TEXT, FOREIGN KEY(`relatedFormId`) REFERENCES `forms`(`formId`) ON UPDATE NO ACTION ON DELETE CASCADE )",
        "fields": [
          {
            "fieldPath": "id",
            "columnName": "id",
            "affinity": "INTEGER",
            "notNull": true
          },
          {
            "fieldPath": "relatedFormId",
            "columnName": "relatedFormId",
            "affinity": "INTEGER",
            "notNull": true
          },
          {
            "fieldPath": "namaProyek",
            "columnName": "namaProyek",
            "affinity": "TEXT",
            "notNull": false
          },
          {
            "fieldPath": "noTemuan",
            "columnName": "noTemuan",
            "affinity": "TEXT",
            "notNull": false
          },
          {
            "fieldPath": "formDate",
            "columnName": "formDate",
            "affinity": "INTEGER",
            "notNull": false
          },
          {
            "fieldPath": "lokasiPenyimpangan",
            "columnName": "lokasiPenyimpangan",
            "affinity": "TEXT",
            "notNull": false
          },
          {
            "fieldPath": "bentukPenyimpangan",
            "columnName": "bentukPenyimpangan",
            "affinity": "TEXT",
            "notNull": false
          },
          {
            "fieldPath": "kategoriForm",
            "columnName": "kategoriForm",
            "affinity": "TEXT",
            "notNull": false
          },
          {
            "fieldPath": "lingkupTemuan",
            "columnName": "lingkupTemuan",
            "affinity": "TEXT",
            "notNull": false
          },
          {
            "fieldPath": "detailLingkupTemuan",
            "columnName": "detailLingkupTemuan",
            "affinity": "TEXT",
            "notNull": false
          },
          {
            "fieldPath": "attachmentPaths",
            "columnName": "attachmentPaths",
            "affinity": "TEXT",
            "notNull": false
          },
          {
            "fieldPath": "penemu.username",
            "columnName": "username",
            "affinity": "TEXT",
            "notNull": false
          },
          {
            "fieldPath": "penemu.fullname",
            "columnName": "fullname",
            "affinity": "TEXT",
            "notNull": false
          },
          {
            "fieldPath": "penemu.jabatan",
            "columnName": "jabatan",
            "affinity": "TEXT",
            "notNull": false
          },
          {
            "fieldPath": "penemu.roleId",
            "columnName": "roleId",
            "affinity": "TEXT",
            "notNull": false
          },
          {
            "fieldPath": "penemu.token",
            "columnName": "token",
            "affinity": "TEXT",
            "notNull": false
          },
          {
            "fieldPath": "penemu.kodedivisi",
            "columnName": "kodedivisi",
            "affinity": "TEXT",
            "notNull": false
          },
          {
            "fieldPath": "penemu.divisi",
            "columnName": "divisi",
            "affinity": "TEXT",
            "notNull": false
          }
        ],
        "primaryKey": {
          "columnNames": [
            "id"
          ],
          "autoGenerate": true
        },
        "indices": [],
        "foreignKeys": [
          {
            "table": "forms",
            "onDelete": "CASCADE",
            "onUpdate": "NO ACTION",
            "columns": [
              "relatedFormId"
            ],
            "referencedColumns": [
              "formId"
            ]
          }
        ]
      },
      {
        "tableName": "rencana_tindak_lanjut",
        "createSql": "CREATE TABLE IF NOT EXISTS `${TABLE_NAME}` (`id` INTEGER PRIMARY KEY AUTOINCREMENT NOT NULL, `relatedFormId` INTEGER NOT NULL, `penyebabUtamaPenyimpangan` TEXT, `keputusanJangkaPendek` TEXT, `titleDetailKeputusanJangkaPendek` TEXT, `detailKeputusanJangkaPendek` TEXT, `targetWaktuKeputusanJangkaPendek` INTEGER, `keputusanJangkaPanjang` TEXT, `targetWaktuKeputusanJangkaPanjang` INTEGER, `username` TEXT, `fullname` TEXT, `jabatan` TEXT, `roleId` TEXT, `token` TEXT, `kodedivisi` TEXT, `divisi` TEXT, FOREIGN KEY(`relatedFormId`) REFERENCES `forms`(`formId`) ON UPDATE NO ACTION ON DELETE CASCADE )",
        "fields": [
          {
            "fieldPath": "id",
            "columnName": "id",
            "affinity": "INTEGER",
            "notNull": true
          },
          {
            "fieldPath": "relatedFormId",
            "columnName": "relatedFormId",
            "affinity": "INTEGER",
            "notNull": true
          },
          {
            "fieldPath": "penyebabUtamaPenyimpangan",
            "columnName": "penyebabUtamaPenyimpangan",
            "affinity": "TEXT",
            "notNull": false
          },
          {
            "fieldPath": "keputusanJangkaPendek",
            "columnName": "keputusanJangkaPendek",
            "affinity": "TEXT",
            "notNull": false
          },
          {
            "fieldPath": "titleDetailKeputusanJangkaPendek",
            "columnName": "titleDetailKeputusanJangkaPendek",
            "affinity": "TEXT",
            "notNull": false
          },
          {
            "fieldPath": "detailKeputusanJangkaPendek",
            "columnName": "detailKeputusanJangkaPendek",
            "affinity": "TEXT",
            "notNull": false
          },
          {
            "fieldPath": "targetWaktuKeputusanJangkaPendek",
            "columnName": "targetWaktuKeputusanJangkaPendek",
            "affinity": "INTEGER",
            "notNull": false
          },
          {
            "fieldPath": "keputusanJangkaPanjang",
            "columnName": "keputusanJangkaPanjang",
            "affinity": "TEXT",
            "notNull": false
          },
          {
            "fieldPath": "targetWaktuKeputusanJangkaPanjang",
            "columnName": "targetWaktuKeputusanJangkaPanjang",
            "affinity": "INTEGER",
            "notNull": false
          },
          {
            "fieldPath": "penanggungJawab.username",
            "columnName": "username",
            "affinity": "TEXT",
            "notNull": false
          },
          {
            "fieldPath": "penanggungJawab.fullname",
            "columnName": "fullname",
            "affinity": "TEXT",
            "notNull": false
          },
          {
            "fieldPath": "penanggungJawab.jabatan",
            "columnName": "jabatan",
            "affinity": "TEXT",
            "notNull": false
          },
          {
            "fieldPath": "penanggungJawab.roleId",
            "columnName": "roleId",
            "affinity": "TEXT",
            "notNull": false
          },
          {
            "fieldPath": "penanggungJawab.token",
            "columnName": "token",
            "affinity": "TEXT",
            "notNull": false
          },
          {
            "fieldPath": "penanggungJawab.kodedivisi",
            "columnName": "kodedivisi",
            "affinity": "TEXT",
            "notNull": false
          },
          {
            "fieldPath": "penanggungJawab.divisi",
            "columnName": "divisi",
            "affinity": "TEXT",
            "notNull": false
          }
        ],
        "primaryKey": {
          "columnNames": [
            "id"
          ],
          "autoGenerate": true
        },
        "indices": [],
        "foreignKeys": [
          {
            "table": "forms",
            "onDelete": "CASCADE",
            "onUpdate": "NO ACTION",
            "columns": [
              "relatedFormId"
            ],
            "referencedColumns": [
              "formId"
            ]
          }
        ]
      },
      {
        "tableName": "data_approval",
        "createSql": "CREATE TABLE IF NOT EXISTS `${TABLE_NAME}` (`id` INTEGER PRIMARY KEY AUTOINCREMENT NOT NULL, `relatedFormId` INTEGER NOT NULL, `tanggalKeputusan` INTEGER, `isApproved` INTEGER NOT NULL, `username` TEXT, `fullname` TEXT, `jabatan` TEXT, `roleId` TEXT, `token` TEXT, `kodedivisi` TEXT, `divisi` TEXT, FOREIGN KEY(`relatedFormId`) REFERENCES `forms`(`formId`) ON UPDATE NO ACTION ON DELETE CASCADE )",
        "fields": [
          {
            "fieldPath": "id",
            "columnName": "id",
            "affinity": "INTEGER",
            "notNull": true
          },
          {
            "fieldPath": "relatedFormId",
            "columnName": "relatedFormId",
            "affinity": "INTEGER",
            "notNull": true
          },
          {
            "fieldPath": "tanggalKeputusan",
            "columnName": "tanggalKeputusan",
            "affinity": "INTEGER",
            "notNull": false
          },
          {
            "fieldPath": "isApproved",
            "columnName": "isApproved",
            "affinity": "INTEGER",
            "notNull": true
          },
          {
            "fieldPath": "pembuatKeputusan.username",
            "columnName": "username",
            "affinity": "TEXT",
            "notNull": false
          },
          {
            "fieldPath": "pembuatKeputusan.fullname",
            "columnName": "fullname",
            "affinity": "TEXT",
            "notNull": false
          },
          {
            "fieldPath": "pembuatKeputusan.jabatan",
            "columnName": "jabatan",
            "affinity": "TEXT",
            "notNull": false
          },
          {
            "fieldPath": "pembuatKeputusan.roleId",
            "columnName": "roleId",
            "affinity": "TEXT",
            "notNull": false
          },
          {
            "fieldPath": "pembuatKeputusan.token",
            "columnName": "token",
            "affinity": "TEXT",
            "notNull": false
          },
          {
            "fieldPath": "pembuatKeputusan.kodedivisi",
            "columnName": "kodedivisi",
            "affinity": "TEXT",
            "notNull": false
          },
          {
            "fieldPath": "pembuatKeputusan.divisi",
            "columnName": "divisi",
            "affinity": "TEXT",
            "notNull": false
          }
        ],
        "primaryKey": {
          "columnNames": [
            "id"
          ],
          "autoGenerate": true
        },
        "indices": [],
        "foreignKeys": [
          {
            "table": "forms",
            "onDelete": "CASCADE",
            "onUpdate": "NO ACTION",
            "columns": [
              "relatedFormId"
            ],
            "referencedColumns": [
              "formId"
            ]
          }
        ]
      },
      {
        "tableName": "realisasi_tindak_lanjut",
        "createSql": "CREATE TABLE IF NOT EXISTS `${TABLE_NAME}` (`id` INTEGER PRIMARY KEY AUTOINCREMENT NOT NULL, `relatedFormId` INTEGER NOT NULL, `progres` INTEGER NOT NULL, `hasilPencegahanDanPerbaikan` TEXT, `listDokumentasiHasil` TEXT, FOREIGN KEY(`relatedFormId`) REFERENCES `forms`(`formId`) ON UPDATE NO ACTION ON DELETE CASCADE )",
        "fields": [
          {
            "fieldPath": "id",
            "columnName": "id",
            "affinity": "INTEGER",
            "notNull": true
          },
          {
            "fieldPath": "relatedFormId",
            "columnName": "relatedFormId",
            "affinity": "INTEGER",
            "notNull": true
          },
          {
            "fieldPath": "progres",
            "columnName": "progres",
            "affinity": "INTEGER",
            "notNull": true
          },
          {
            "fieldPath": "hasilPencegahanDanPerbaikan",
            "columnName": "hasilPencegahanDanPerbaikan",
            "affinity": "TEXT",
            "notNull": false
          },
          {
            "fieldPath": "listDokumentasiHasil",
            "columnName": "listDokumentasiHasil",
            "affinity": "TEXT",
            "notNull": false
          }
        ],
        "primaryKey": {
          "columnNames": [
            "id"
          ],
          "autoGenerate": true
        },
        "indices": [],
        "foreignKeys": [
          {
            "table": "forms",
            "onDelete": "CASCADE",
            "onUpdate": "NO ACTION",
            "columns": [
              "relatedFormId"
            ],
            "referencedColumns": [
              "formId"
            ]
          }
        ]
      },
      {
        "tableName": "data_verifikasi_hasil",
        "createSql": "CREATE TABLE IF NOT EXISTS `${TABLE_NAME}` (`id` INTEGER PRIMARY KEY AUTOINCREMENT NOT NULL, `relatedFormId` INTEGER NOT NULL, `tanggalVerifikasi` INTEGER, `isStatusOpened` INTEGER NOT NULL, `feedback` TEXT, `rootCauseCategory` TEXT, `rootCauseValue` TEXT, `username` TEXT, `fullname` TEXT, `jabatan` TEXT, `roleId` TEXT, `token` TEXT, `kodedivisi` TEXT, `divisi` TEXT, FOREIGN KEY(`relatedFormId`) REFERENCES `forms`(`formId`) ON UPDATE NO ACTION ON DELETE CASCADE )",
        "fields": [
          {
            "fieldPath": "id",
            "columnName": "id",
            "affinity": "INTEGER",
            "notNull": true
          },
          {
            "fieldPath": "relatedFormId",
            "columnName": "relatedFormId",
            "affinity": "INTEGER",
            "notNull": true
          },
          {
            "fieldPath": "tanggalVerifikasi",
            "columnName": "tanggalVerifikasi",
            "affinity": "INTEGER",
            "notNull": false
          },
          {
            "fieldPath": "isStatusOpened",
            "columnName": "isStatusOpened",
            "affinity": "INTEGER",
            "notNull": true
          },
          {
            "fieldPath": "feedback",
            "columnName": "feedback",
            "affinity": "TEXT",
            "notNull": false
          },
          {
            "fieldPath": "rootCauseCategory",
            "columnName": "rootCauseCategory",
            "affinity": "TEXT",
            "notNull": false
          },
          {
            "fieldPath": "rootCauseValue",
            "columnName": "rootCauseValue",
            "affinity": "TEXT",
            "notNull": false
          },
          {
            "fieldPath": "verifikator.username",
            "columnName": "username",
            "affinity": "TEXT",
            "notNull": false
          },
          {
            "fieldPath": "verifikator.fullname",
            "columnName": "fullname",
            "affinity": "TEXT",
            "notNull": false
          },
          {
            "fieldPath": "verifikator.jabatan",
            "columnName": "jabatan",
            "affinity": "TEXT",
            "notNull": false
          },
          {
            "fieldPath": "verifikator.roleId",
            "columnName": "roleId",
            "affinity": "TEXT",
            "notNull": false
          },
          {
            "fieldPath": "verifikator.token",
            "columnName": "token",
            "affinity": "TEXT",
            "notNull": false
          },
          {
            "fieldPath": "verifikator.kodedivisi",
            "columnName": "kodedivisi",
            "affinity": "TEXT",
            "notNull": false
          },
          {
            "fieldPath": "verifikator.divisi",
            "columnName": "divisi",
            "affinity": "TEXT",
            "notNull": false
          }
        ],
        "primaryKey": {
          "columnNames": [
            "id"
          ],
          "autoGenerate": true
        },
        "indices": [],
        "foreignKeys": [
          {
            "table": "forms",
            "onDelete": "CASCADE",
            "onUpdate": "NO ACTION",
            "columns": [
              "relatedFormId"
            ],
            "referencedColumns": [
              "formId"
            ]
          }
        ]
      }
    ],
    "setupQueries": [
      "CREATE TABLE IF NOT EXISTS room_master_table (id INTEGER PRIMARY KEY,identity_hash TEXT)",
      "INSERT OR REPLACE INTO room_master_table (id,identity_hash) VALUES(42, \"d78951d67e72c392b1befc2b308fda06\")"
    ]
  }
}